info face="Source Sans Pro" size=28 bold=1 italic=0 charset="" unicode=0 stretchH=100 smooth=1 aa=1 padding=0,0,0,0 spacing=2,2
common lineHeight=36 base=28 scaleW=256 scaleH=256 pages=1 packed=0
page id=0 file="SansPro_Black_28.png"
chars count=86
char id=32     x=243   y=125   width=0     height=0     xoffset=0     yoffset=28    xadvance=6     page=0 chnl=0 letter="space"
char id=33     x=73    y=32    width=8     height=22    xoffset=2     yoffset=6     xadvance=10    page=0 chnl=0 letter="!"
char id=36     x=86    y=2     width=15    height=26    xoffset=1     yoffset=5     xadvance=15    page=0 chnl=0 letter="$"
char id=37     x=83    y=32    width=26    height=21    xoffset=1     yoffset=7     xadvance=24    page=0 chnl=0 letter="%"
char id=38     x=138   y=32    width=21    height=21    xoffset=1     yoffset=7     xadvance=19    page=0 chnl=0 letter="&"
char id=39     x=170   y=125   width=7     height=13    xoffset=2     yoffset=6     xadvance=9     page=0 chnl=0 letter="'"
char id=43     x=101   y=125   width=16    height=16    xoffset=1     yoffset=9     xadvance=15    page=0 chnl=0 letter="+"
char id=45     x=213   y=125   width=10    height=6     xoffset=1     yoffset=17    xadvance=10    page=0 chnl=0 letter="-"
char id=46     x=191   y=125   width=8     height=8     xoffset=2     yoffset=20    xadvance=9     page=0 chnl=0 letter="."
char id=47     x=15    y=2     width=11    height=27    xoffset=0     yoffset=5     xadvance=9     page=0 chnl=0 letter="/"
char id=48     x=39    y=79    width=16    height=21    xoffset=1     yoffset=7     xadvance=15    page=0 chnl=0 letter="0"
char id=49     x=46    y=102   width=14    height=20    xoffset=2     yoffset=8     xadvance=15    page=0 chnl=0 letter="1"
char id=50     x=129   y=79    width=16    height=21    xoffset=1     yoffset=7     xadvance=15    page=0 chnl=0 letter="2"
char id=51     x=57    y=79    width=16    height=21    xoffset=1     yoffset=7     xadvance=15    page=0 chnl=0 letter="3"
char id=52     x=11    y=102   width=16    height=20    xoffset=1     yoffset=8     xadvance=15    page=0 chnl=0 letter="4"
char id=53     x=147   y=79    width=16    height=21    xoffset=1     yoffset=7     xadvance=15    page=0 chnl=0 letter="5"
char id=54     x=75    y=79    width=16    height=21    xoffset=1     yoffset=7     xadvance=15    page=0 chnl=0 letter="6"
char id=55     x=29    y=102   width=15    height=20    xoffset=1     yoffset=8     xadvance=15    page=0 chnl=0 letter="7"
char id=56     x=182   y=79    width=15    height=21    xoffset=1     yoffset=7     xadvance=15    page=0 chnl=0 letter="8"
char id=57     x=93    y=79    width=16    height=21    xoffset=1     yoffset=7     xadvance=15    page=0 chnl=0 letter="9"
char id=58     x=238   y=102   width=8     height=17    xoffset=2     yoffset=11    xadvance=9     page=0 chnl=0 letter=":"
char id=59     x=62    y=32    width=9     height=22    xoffset=1     yoffset=12    xadvance=9     page=0 chnl=0 letter=";"
char id=60     x=65    y=125   width=16    height=16    xoffset=1     yoffset=9     xadvance=15    page=0 chnl=0 letter="<"
char id=61     x=152   y=125   width=16    height=13    xoffset=1     yoffset=11    xadvance=15    page=0 chnl=0 letter="="
char id=62     x=83    y=125   width=16    height=16    xoffset=1     yoffset=9     xadvance=15    page=0 chnl=0 letter=">"
char id=63     x=20    y=32    width=14    height=22    xoffset=1     yoffset=6     xadvance=13    page=0 chnl=0 letter="?"
char id=65     x=204   y=32    width=19    height=21    xoffset=-0    yoffset=7     xadvance=16    page=0 chnl=0 letter="A"
char id=66     x=237   y=56    width=17    height=21    xoffset=2     yoffset=7     xadvance=17    page=0 chnl=0 letter="B"
char id=67     x=142   y=56    width=17    height=21    xoffset=1     yoffset=7     xadvance=16    page=0 chnl=0 letter="C"
char id=68     x=161   y=56    width=17    height=21    xoffset=2     yoffset=7     xadvance=18    page=0 chnl=0 letter="D"
char id=69     x=199   y=79    width=15    height=21    xoffset=2     yoffset=7     xadvance=16    page=0 chnl=0 letter="E"
char id=70     x=216   y=79    width=14    height=21    xoffset=2     yoffset=7     xadvance=15    page=0 chnl=0 letter="F"
char id=71     x=2     y=56    width=18    height=21    xoffset=1     yoffset=7     xadvance=18    page=0 chnl=0 letter="G"
char id=72     x=122   y=56    width=18    height=21    xoffset=2     yoffset=7     xadvance=19    page=0 chnl=0 letter="H"
char id=73     x=2     y=102   width=7     height=21    xoffset=2     yoffset=7     xadvance=9     page=0 chnl=0 letter="I"
char id=74     x=165   y=79    width=15    height=21    xoffset=0     yoffset=7     xadvance=15    page=0 chnl=0 letter="J"
char id=75     x=82    y=56    width=18    height=21    xoffset=2     yoffset=7     xadvance=18    page=0 chnl=0 letter="K"
char id=76     x=232   y=79    width=14    height=21    xoffset=2     yoffset=7     xadvance=15    page=0 chnl=0 letter="L"
char id=77     x=161   y=32    width=20    height=21    xoffset=2     yoffset=7     xadvance=22    page=0 chnl=0 letter="M"
char id=78     x=180   y=56    width=17    height=21    xoffset=2     yoffset=7     xadvance=19    page=0 chnl=0 letter="N"
char id=79     x=183   y=32    width=19    height=21    xoffset=1     yoffset=7     xadvance=19    page=0 chnl=0 letter="O"
char id=80     x=2     y=79    width=17    height=21    xoffset=2     yoffset=7     xadvance=17    page=0 chnl=0 letter="P"
char id=81     x=63    y=2     width=21    height=26    xoffset=1     yoffset=7     xadvance=19    page=0 chnl=0 letter="Q"
char id=82     x=102   y=56    width=18    height=21    xoffset=2     yoffset=7     xadvance=18    page=0 chnl=0 letter="R"
char id=83     x=21    y=79    width=16    height=21    xoffset=1     yoffset=7     xadvance=16    page=0 chnl=0 letter="S"
char id=84     x=218   y=56    width=17    height=21    xoffset=1     yoffset=7     xadvance=16    page=0 chnl=0 letter="T"
char id=85     x=22    y=56    width=18    height=21    xoffset=2     yoffset=7     xadvance=19    page=0 chnl=0 letter="U"
char id=86     x=225   y=32    width=19    height=21    xoffset=-0    yoffset=7     xadvance=16    page=0 chnl=0 letter="V"
char id=87     x=111   y=32    width=25    height=21    xoffset=0     yoffset=7     xadvance=23    page=0 chnl=0 letter="W"
char id=88     x=42    y=56    width=18    height=21    xoffset=0     yoffset=7     xadvance=16    page=0 chnl=0 letter="X"
char id=89     x=62    y=56    width=18    height=21    xoffset=-0    yoffset=7     xadvance=15    page=0 chnl=0 letter="Y"
char id=90     x=111   y=79    width=16    height=21    xoffset=1     yoffset=7     xadvance=15    page=0 chnl=0 letter="Z"
char id=91     x=41    y=2     width=9     height=27    xoffset=2     yoffset=5     xadvance=10    page=0 chnl=0 letter="["
char id=92     x=28    y=2     width=11    height=27    xoffset=1     yoffset=5     xadvance=9     page=0 chnl=0 letter="\"
char id=93     x=52    y=2     width=9     height=27    xoffset=1     yoffset=5     xadvance=10    page=0 chnl=0 letter="]"
char id=94     x=135   y=125   width=15    height=14    xoffset=1     yoffset=6     xadvance=15    page=0 chnl=0 letter="^"
char id=95     x=225   y=125   width=16    height=5     xoffset=0     yoffset=27    xadvance=14    page=0 chnl=0 letter="_"
char id=96     x=201   y=125   width=10    height=7     xoffset=3     yoffset=5     xadvance=16    page=0 chnl=0 letter="`"
char id=97     x=174   y=102   width=15    height=17    xoffset=1     yoffset=11    xadvance=15    page=0 chnl=0 letter="a"
char id=98     x=169   y=2     width=16    height=22    xoffset=2     yoffset=6     xadvance=16    page=0 chnl=0 letter="b"
char id=99     x=191   y=102   width=14    height=17    xoffset=1     yoffset=11    xadvance=13    page=0 chnl=0 letter="c"
char id=100    x=187   y=2     width=16    height=22    xoffset=1     yoffset=6     xadvance=16    page=0 chnl=0 letter="d"
char id=101    x=157   y=102   width=15    height=17    xoffset=1     yoffset=11    xadvance=15    page=0 chnl=0 letter="e"
char id=102    x=36    y=32    width=13    height=22    xoffset=1     yoffset=6     xadvance=10    page=0 chnl=0 letter="f"
char id=103    x=103   y=2     width=16    height=23    xoffset=1     yoffset=11    xadvance=15    page=0 chnl=0 letter="g"
char id=104    x=2     y=32    width=16    height=22    xoffset=2     yoffset=6     xadvance=16    page=0 chnl=0 letter="h"
char id=105    x=121   y=2     width=8     height=23    xoffset=1     yoffset=5     xadvance=8     page=0 chnl=0 letter="i"
char id=106    x=2     y=2     width=11    height=28    xoffset=-2    yoffset=5     xadvance=8     page=0 chnl=0 letter="j"
char id=107    x=150   y=2     width=17    height=22    xoffset=2     yoffset=6     xadvance=16    page=0 chnl=0 letter="k"
char id=108    x=51    y=32    width=9     height=22    xoffset=2     yoffset=6     xadvance=8     page=0 chnl=0 letter="l"
char id=109    x=77    y=102   width=24    height=17    xoffset=2     yoffset=11    xadvance=24    page=0 chnl=0 letter="m"
char id=110    x=121   y=102   width=16    height=17    xoffset=2     yoffset=11    xadvance=16    page=0 chnl=0 letter="n"
char id=111    x=103   y=102   width=16    height=17    xoffset=1     yoffset=11    xadvance=16    page=0 chnl=0 letter="o"
char id=112    x=205   y=2     width=16    height=22    xoffset=2     yoffset=11    xadvance=16    page=0 chnl=0 letter="p"
char id=113    x=223   y=2     width=16    height=22    xoffset=1     yoffset=11    xadvance=16    page=0 chnl=0 letter="q"
char id=114    x=223   y=102   width=13    height=17    xoffset=2     yoffset=11    xadvance=12    page=0 chnl=0 letter="r"
char id=115    x=207   y=102   width=14    height=17    xoffset=1     yoffset=11    xadvance=13    page=0 chnl=0 letter="s"
char id=116    x=62    y=102   width=13    height=20    xoffset=0     yoffset=8     xadvance=11    page=0 chnl=0 letter="t"
char id=117    x=139   y=102   width=16    height=17    xoffset=2     yoffset=11    xadvance=16    page=0 chnl=0 letter="u"
char id=118    x=27    y=125   width=17    height=16    xoffset=0     yoffset=12    xadvance=15    page=0 chnl=0 letter="v"
char id=119    x=2     y=125   width=23    height=16    xoffset=1     yoffset=12    xadvance=22    page=0 chnl=0 letter="w"
char id=120    x=46    y=125   width=17    height=16    xoffset=0     yoffset=12    xadvance=15    page=0 chnl=0 letter="x"
char id=121    x=131   y=2     width=17    height=22    xoffset=0     yoffset=11    xadvance=15    page=0 chnl=0 letter="y"
char id=122    x=119   y=125   width=14    height=16    xoffset=1     yoffset=12    xadvance=13    page=0 chnl=0 letter="z"
char id=8226   x=179   y=125   width=10    height=11    xoffset=1     yoffset=14    xadvance=10    page=0 chnl=0 letter="•"
char id=8364   x=199   y=56    width=17    height=21    xoffset=1     yoffset=7     xadvance=15    page=0 chnl=0 letter="€"
